<?xml version="1.0" encoding="UTF-8" standalone="no"?>
<!DOCTYPE svg PUBLIC "-//W3C//DTD SVG 1.1//EN" "http://www.w3.org/Graphics/SVG/1.1/DTD/svg11.dtd">
<svg version="1.1" id="Layer_1" xmlns="http://www.w3.org/2000/svg" xmlns:xlink="http://www.w3.org/1999/xlink" x="0px" y="0px" width="15px" height="7px" viewBox="0 0 15 7" enable-background="new 0 0 15 7" xml:space="preserve">  <image id="image0" width="15" height="7" x="0" y="0"
    xlink:href="data:image/png;base64,iVBORw0KGgoAAAANSUhEUgAAAA8AAAAHCAMAAADgW+cVAAAABGdBTUEAALGPC/xhBQAAACBjSFJN
AAB6JgAAgIQAAPoAAACA6AAAdTAAAOpgAAA6mAAAF3CculE8AAAAaVBMVEUpLz8pLz8pLz8pLz8p
Lz8pLz8pLz8pLz8pLz8pLz8pLz8pLz8pLz8pLz8pLz8pLz8pLz8pLz8pLz8pLz8pLz8pLz8pLz8p
Lz8pLz8pLz8pLz8pLz8pLz8pLz8pLz8pLz8pLz8pLz/////OKTqMAAAAInRSTlMAeU5Ucwy0ZGyw
CgWhfwGGnAOHmp+Bba8Js2e/J8FPQNQ7Pz+2PgAAAAFiS0dEIl1lXKwAAAAHdElNRQfhDAsPBDU6
vk6dAAAAQ0lEQVQI12NgZGJAAGYWBlY2djiXg5OLgYGbhxfC4+MXEATTQsIgmltElA+qTkxcgoFV
UgrJHGkZWTkkcxnkFRQhDABtXwJyVt4ZnAAAACV0RVh0ZGF0ZTpjcmVhdGUAMjAxNy0xMi0xMVQx
NTowNDo1MyswMzowMMXLT+IAAAAldEVYdGRhdGU6bW9kaWZ5ADIwMTctMTItMTFUMTU6MDQ6NTMr
MDM6MDC0lvdeAAAAGXRFWHRTb2Z0d2FyZQBBZG9iZSBJbWFnZVJlYWR5ccllPAAAAABJRU5ErkJg
gg==" />
</svg>
